R语言文本主题模型之潜在语义分析（LDA_Latent Dirichlet Allocation）
…
如果我们设置k=12
我们的结果如何变化？

group_by(topic) %>%

top_n(5, beta) %>%

ungroup() %>%

arrange(topic, -beta)

top_terms

## # A tibble: 60 × 3

## topic term beta

## <int> <chr> <dbl>

## 1 1 military 0.011691176

## 2 1 united 0.011598436

## 3 1 iraq 0.010618221

## 4 1 president 0.009498227

## 5 1 american 0.008253379

## 6 2 dukakis 0.009819260

## 7 2 bush 0.007300830

## 8 2 campaign 0.006366915

## 9 2 people 0.006098596

## 10 2 school 0.005208529

## # ... with 50 more rows 
…
